^Y:\GD\MOOC\ALGO\ALGO VS\STRONGLY CONNECTED COMPONENTS\STDAFX.CPP
/c /ZI /nologo /W3 /WX- /sdl /Od /Oy- /D WIN32 /D _DEBUG /D _CONSOLE /D _LIB /D _UNICODE /D UNICODE /Gm /EHsc /RTC1 /MDd /GS /fp:precise /Zc:wchar_t /Zc:forScope /Yc"stdafx.h" /Fp"DEBUG\STRONGLY CONNECTED COMPONENTS.PCH" /Fo"DEBUG\\" /Fd"DEBUG\VC120.PDB" /Gd /TP /analyze- Y:\GD\MOOC\ALGO\ALGO VS\STRONGLY CONNECTED COMPONENTS\STDAFX.CPP
^Y:\GD\MOOC\ALGO\ALGO VS\STRONGLY CONNECTED COMPONENTS\EDGE.CPP
/c /ZI /nologo /W3 /WX- /sdl /Od /Oy- /D WIN32 /D _DEBUG /D _CONSOLE /D _LIB /D _UNICODE /D UNICODE /Gm /EHsc /RTC1 /MDd /GS /fp:precise /Zc:wchar_t /Zc:forScope /Yu"stdafx.h" /Fp"DEBUG\STRONGLY CONNECTED COMPONENTS.PCH" /Fo"DEBUG\\" /Fd"DEBUG\VC120.PDB" /Gd /TP /analyze- Y:\GD\MOOC\ALGO\ALGO VS\STRONGLY CONNECTED COMPONENTS\EDGE.CPP
^Y:\GD\MOOC\ALGO\ALGO VS\STRONGLY CONNECTED COMPONENTS\NODE.CPP
/c /ZI /nologo /W3 /WX- /sdl /Od /Oy- /D WIN32 /D _DEBUG /D _CONSOLE /D _LIB /D _UNICODE /D UNICODE /Gm /EHsc /RTC1 /MDd /GS /fp:precise /Zc:wchar_t /Zc:forScope /Yu"stdafx.h" /Fp"DEBUG\STRONGLY CONNECTED COMPONENTS.PCH" /Fo"DEBUG\\" /Fd"DEBUG\VC120.PDB" /Gd /TP /analyze- Y:\GD\MOOC\ALGO\ALGO VS\STRONGLY CONNECTED COMPONENTS\NODE.CPP
^Y:\GD\MOOC\ALGO\ALGO VS\STRONGLY CONNECTED COMPONENTS\STRONGLY CONNECTED COMPONENTS.CPP
/c /ZI /nologo /W3 /WX- /sdl /Od /Oy- /D WIN32 /D _DEBUG /D _CONSOLE /D _LIB /D _UNICODE /D UNICODE /Gm /EHsc /RTC1 /MDd /GS /fp:precise /Zc:wchar_t /Zc:forScope /Yu"stdafx.h" /Fp"DEBUG\STRONGLY CONNECTED COMPONENTS.PCH" /Fo"DEBUG\\" /Fd"DEBUG\VC120.PDB" /Gd /TP /analyze- Y:\GD\MOOC\ALGO\ALGO VS\STRONGLY CONNECTED COMPONENTS\STRONGLY CONNECTED COMPONENTS.CPP
