^Y:\GD\MOOC\ALGO\ALGO VS\STRONGLY CONNECTED COMPONENTS\DEBUG\EDGE.OBJ|Y:\GD\MOOC\ALGO\ALGO VS\STRONGLY CONNECTED COMPONENTS\DEBUG\NODE.OBJ|Y:\GD\MOOC\ALGO\ALGO VS\STRONGLY CONNECTED COMPONENTS\DEBUG\STDAFX.OBJ|Y:\GD\MOOC\ALGO\ALGO VS\STRONGLY CONNECTED COMPONENTS\DEBUG\STRONGLY CONNECTED COMPONENTS.OBJ
Y:\GD\MOOC\ALGO\ALGO VS\DEBUG\STRONGLY CONNECTED COMPONENTS.EXE
Y:\GD\MOOC\ALGO\ALGO VS\DEBUG\STRONGLY CONNECTED COMPONENTS.PDB
